type__c,RollupOrFilterData__c,filterJobRollupKey__c
rollup,"{""attributes"":{""type"":""Date_Sync__c"",""url"":""/services/data/v50.0/sobjects/Date_Sync__c/a071U000001aQiAQAU""},""relationshipFieldName__c"":""WhoId"",""LastModifiedDate"":""2019-04-30T19:51:27.000+0000"",""targetFieldType__c"":""DATE"",""targetField__c"":""Contact.rhuc_Most_Recent_Call_Date__c"",""Needs_Initialized__c"":true,""Only_Use_First_Matching_Result__c"":false,""targetFieldLength__c"":0.0,""sourceObjectName__c"":""Task"",""Name"":""tact.rhuc_Most_Recent_Call_Date__c4523"",""triggerDisabled__c"":false,""SourceFieldObject__c"":""Task"",""isRealTime__c"":false,""rollupStatus__c"":""Green"",""Overwrite__c"":true,""condition__c"":""FC-1115"",""queryArchive__c"":false,""sourceField__c"":""Task.ActivityDate"",""targetObjectName__c"":""Contact"",""relationshipField__c"":""Task.WhoId"",""IsDeleted"":false,""Needs_Run_After_Criteria_Change__c"":true,""Dedup_Flag__c"":true,""Async__c"":false,""Use_Custom_Rollup_Targeting__c"":false,""relationshipName__c"":""Tasks"",""sourceFieldName__c"":""ActivityDate"",""append__c"":false,""description__c"":""Max on ActivityDate where Type = Call"",""logic__c"":""MAX"",""SystemModstamp"":""2019-04-30T19:51:27.000+0000"",""targetFieldName__c"":""rhuc_Most_Recent_Call_Date__c"",""conditional__c"":true,""failedRecordUpdates__c"":0.0,""Remove_Trailing_Delimeters__c"":true,""escapeSpecialCharacters__c"":true,""CreatedDate"":""2019-04-30T19:51:27.000+0000"",""disable_multipicklist_split__c"":false,""Deployed_From_Use_Case__c"":true,""RollupLabel__c"":""Most Recent Call Date"",""sourceFieldType__c"":""DATE""}",
filter,"{""attributes"":{""type"":""HS_Filter__c"",""url"":""/services/data/v50.0/sobjects/HS_Filter__c/a081U000001P1X0QAK""},""Id"":""a081U000001P1X0QAK"",""Name"":""FC-1115"",""Condition__c"":""Type equals Call"",""JSON__c"":""{\""table\"":\""Task\"",\""sorts\"":[{\""objName\"":\""Task\"",\""logic\"":\""DESC\"",\""itemNumber\"":0,\""field\"":\""ActivityDate\""}],\""relSObjectType\"":{},\""offsetVar\"":\""\"",\""limitVar\"":\""1\"",\""invalidBoolMessage\"":null,\""hasCriteriaPicklist\"":null,\""filterFieldType\"":null,\""dh\"":{},\""criterion\"":[{\""objName\"":\""Task\"",\""logic\"":\""=\"",\""id\"":null,\""fieldType\"":\""BOOLEAN\"",\""field\"":\""IsDeleted\"",\""condition\"":\""false\""},{\""objName\"":\""Task\"",\""logic\"":\""=\"",\""id\"":null,\""fieldType\"":\""PICKLIST\"",\""field\"":\""type\"",\""condition\"":\""'Call'\""}],\""removeNullsLast\"":false,\""recName\"":\""FC-1115\"",\""isSubQuery\"":true,\""isBatch\"":true,\""groupBy\"":null,\""filterName\"":\""Type equals Call\"",\""boolLogic\"":\""1 AND 2\""}"",""Logic__c"":""HS_Filter"",""XRef__c"":""Task""}",FC-1115
